##############
### Misc ###
##############
#Used to quickly edit allow = {} of every Dwarovar formable
dwarovar_special_formation_trigger = {
	custom_trigger_tooltip = {
		tooltip = no_expedition_happening_tooltip
		NOT = { has_country_flag = expedition_happening }
	}
	custom_trigger_tooltip = {
		tooltip = dont_dig_tooltip
		NOT = { has_country_flag = is_digging }
	}
}


province_has_historical_culture = {
	OR = {
		AND = {
			area = amldihr_area
			culture = kronium_dwarf
		}
		AND = {
			area = krakdhum_area
			culture = quartz_dwarf
		}
		AND = {
			area = vazhatun_area
			culture = sapphire_dwarf
		}
		AND = {
			area = orlazam_area
			culture = ramsteel_dwarf
		}
		AND = {
			area = railyard_area
			culture = dagrite_dwarf
		}
		AND = {
			area = mithradhum_area
			culture = mithril_dwarf
		}
		AND = {
			area = khugdihr_area
			culture = agate_dwarf
		}
		AND = {
			area = orldhum_area
			culture = platinum_dwarf
		}
		AND = {
			area = stunad_kozenad_area
			culture = opal_dwarf
		}
		AND = {
			area = jorkad_junction_area
			culture = lead_dwarf
		}
		AND = {
			area = shazstundihr_area
			culture = marble_dwarf
		}
		AND = {
			area = orlghelovar_area
			culture = cobalt_dwarf
		}
		AND = {
			area = stunad_skomdihr_area
			culture = flint_dwarf
		}
		AND = {
			area = vazumbrog_area
			culture = titanium_dwarf
		}
		AND = {
			area = hehos_legacy_area
			culture = pyrite_dwarf
		}
		AND = {
			area = gor_burad_area
			culture = basalt_dwarf
		}
		AND = {
			area = ozumbrog_area
			culture = topaz_dwarf
		}
		AND = {
			area = grozumdihr_area
			culture = peridot_dwarf
		}
		AND = {
			area = ovdal_az_an_area
			culture = granite_dwarf
		}
		AND = {
			area = hul_az_krakazol_area
			culture = amethyst_dwarf
		}
		AND = {
			area = tuwad_area
			culture = emerald_dwarf
		}
		AND = {
			area = gronstunad_area
			culture = jade_dwarf
		}
		AND = {
			area = dromak_area
			culture = malachite_dwarf
		}
		AND = {
			area = arg_ordstun_area
			culture = diamond_dwarf
		}
		AND = {
			area = ovdal_lodhum_area
			culture = garnet_dwarf
		}
		AND = {
			area = verkal_gulan_area
			culture = gold_dwarf
		}
		AND = {
			area = kanzad_area
			culture = amber_dwarf
		}
		AND = {
			area = seghdihr_area
			culture = citrine_dwarf
		}
	}
}

is_remnant_hold = {
	OR = {
		tag = I02 #krakdhumvror
		tag = H77 #ovdal lodhum
		tag = H76 #arg ordstun
		tag = H78 #seghdihr
		tag = F47 #verkal gulan
		tag = H79 #ovdal kanzad
	}
}

runefather_conversion_exempt = {
	OR = {
		tag = H81 #masked butcher
		tag = I19 #ovdal-az-an
		tag = H90 #spiderwretch
		tag = I05 #mithradhum
		tag = I07 #khugdihr
		tag = J32 #mire maw
		tag = R62 #the command
	}
}

runelink_upkeep_maintained = {
	if = {
		limit = { has_province_modifier = runelink_upkeep_1 }
		development = 3
	}
	else_if = {
		limit = { has_province_modifier = runelink_upkeep_2 }
		development = 6
	}
	else_if = {
		limit = { has_province_modifier = runelink_upkeep_3 }
		development = 9
	}
	else_if = {
		limit = { has_province_modifier = runelink_upkeep_4 }
		development = 12
	}
	else_if = {
		limit = { has_province_modifier = runelink_upkeep_5 }
		development = 15
	}
	else_if = {
		limit = { has_province_modifier = runelink_upkeep_6 }
		development = 18
	}
	else_if = {
		limit = { has_province_modifier = runelink_upkeep_7 }
		development = 21
	}
	else_if = {
		limit = { has_province_modifier = runelink_upkeep_8 }
		development = 24
	}
	else_if = {
		limit = { has_province_modifier = runelink_upkeep_9 }
		development = 27
	}
	else_if = {
		limit = { has_province_modifier = runelink_upkeep_10 }
		development = 30
	}
	else_if = {
		limit = { has_province_modifier = runelink_upkeep_11 }
		development = 33
	}
	else_if = {
		limit = { has_province_modifier = runelink_upkeep_12 }
		development = 36
	}
	else_if = {
		limit = { has_province_modifier = runelink_upkeep_13 }
		development = 39
	}
	else_if = {
		limit = { has_province_modifier = runelink_upkeep_14 }
		development = 42
	}
	else_if = {
		limit = { has_province_modifier = runelink_upkeep_15 }
		development = 45
	}
	else_if = {
		limit = { has_province_modifier = runelink_upkeep_16 }
		development = 48
	}
	else_if = {
		limit = { has_province_modifier = runelink_upkeep_17 }
		development = 51
	}
	else_if = {
		limit = { has_province_modifier = runelink_upkeep_18 }
		development = 54
	}
	else_if = {
		limit = { has_province_modifier = runelink_upkeep_19 }
		development = 57
	}
	else_if = {
		limit = { has_province_modifier = runelink_upkeep_20 }
		development = 60
	}
	else_if = {
		limit = { has_province_modifier = runelink_upkeep_21 }
		development = 63
	}
	else_if = {
		limit = { has_province_modifier = runelink_upkeep_22 }
		development = 66
	}
	else_if = {
		limit = { has_province_modifier = runelink_upkeep_23 }
		development = 69
	}
	else_if = {
		limit = { has_province_modifier = runelink_upkeep_24 }
		development = 72
	}
	else_if = {
		limit = { has_province_modifier = runelink_upkeep_25 }
		development = 75
	}
	else_if = {
		limit = { has_province_modifier = runelink_upkeep_26 }
		development = 78
	}
	else_if = {
		limit = { has_province_modifier = runelink_upkeep_27 }
		development = 81
	}
	else_if = {
		limit = { has_province_modifier = runelink_upkeep_28 }
		development = 84
	}
	else_if = {
		limit = { has_province_modifier = runelink_upkeep_29 }
		development = 87
	}
	else_if = {
		limit = { has_province_modifier = runelink_upkeep_30 }
		development = 90
	}
	else_if = {
		limit = { has_province_modifier = runelink_upkeep_31 }
		development = 93
	}
	else_if = {
		limit = { has_province_modifier = runelink_upkeep_32 }
		development = 96
	}
	else_if = {
		limit = { has_province_modifier = runelink_upkeep_33 }
		development = 99
	}
	else_if = {
		limit = { has_province_modifier = runelink_upkeep_34 }
		development = 102
	}
	else_if = {
		limit = { has_province_modifier = runelink_upkeep_35 }
		development = 105
	}
}

dwarovar_goblin_culture = {
	OR = {
		culture = cave_goblin
		culture = undergrowth_goblin
		culture = coldcave_goblin
		culture = rustroad_goblin
		culture = crawler_goblin
		culture = skinburner_goblin
		culture = straggler_goblin
		culture = goldtooth_goblin
		culture = trolltamer_goblin
		culture = deep_goblin
	}
}

dwarovar_goblin_culture_primary = {
	OR = {
		primary_culture = cave_goblin
		primary_culture = undergrowth_goblin
		primary_culture = coldcave_goblin
		primary_culture = rustroad_goblin
		primary_culture = crawler_goblin
		primary_culture = skinburner_goblin
		primary_culture = straggler_goblin
		primary_culture = goldtooth_goblin
		primary_culture = trolltamer_goblin
		primary_culture = deep_goblin
	}
}

dwarovar_goblin_culture_ruler = {
	OR = {
		ruler_culture = cave_goblin
		ruler_culture = undergrowth_goblin
		ruler_culture = coldcave_goblin
		ruler_culture = rustroad_goblin
		ruler_culture = crawler_goblin
		ruler_culture = skinburner_goblin
		ruler_culture = straggler_goblin
		ruler_culture = goldtooth_goblin
		ruler_culture = trolltamer_goblin
		ruler_culture = deep_goblin
	}
}

dwarovar_goblin_culture_heir = {
	OR = {
		heir_culture = cave_goblin
		heir_culture = undergrowth_goblin
		heir_culture = coldcave_goblin
		heir_culture = rustroad_goblin
		heir_culture = crawler_goblin
		heir_culture = skinburner_goblin
		heir_culture = straggler_goblin
		heir_culture = goldtooth_goblin
		heir_culture = trolltamer_goblin
		heir_culture = deep_goblin
	}
}

dwarovar_goblin_culture_consort = {
	OR = {
		consort_culture = cave_goblin
		consort_culture = undergrowth_goblin
		consort_culture = coldcave_goblin
		consort_culture = rustroad_goblin
		consort_culture = crawler_goblin
		consort_culture = skinburner_goblin
		consort_culture = straggler_goblin
		consort_culture = goldtooth_goblin
		consort_culture = trolltamer_goblin
		consort_culture = deep_goblin
	}
}

dwarovar_goblin_culture_accepted = {
	OR = {
		accepted_culture = cave_goblin
		accepted_culture = undergrowth_goblin
		accepted_culture = coldcave_goblin
		accepted_culture = rustroad_goblin
		accepted_culture = crawler_goblin
		accepted_culture = skinburner_goblin
		accepted_culture = straggler_goblin
		accepted_culture = goldtooth_goblin
		accepted_culture = trolltamer_goblin
		accepted_culture = deep_goblin
	}
}

dwarovar_goblin_culture_advisor = {
	OR = {
		employed_advisor = { culture = cave_goblin }
		employed_advisor = { culture = undergrowth_goblin }
		employed_advisor = { culture = coldcave_goblin }
		employed_advisor = { culture = rustroad_goblin }
		employed_advisor = { culture = crawler_goblin }
		employed_advisor = { culture = skinburner_goblin }
		employed_advisor = { culture = straggler_goblin }
		employed_advisor = { culture = goldtooth_goblin }
		employed_advisor = { culture = trolltamer_goblin }
		employed_advisor = { culture = deep_goblin }
	}
}

dwarovar_goblin_culture_advisor_of_category = {
	OR = {
		employed_advisor = { category = $category$ culture = cave_goblin }
		employed_advisor = { category = $category$ culture = undergrowth_goblin }
		employed_advisor = { category = $category$ culture = coldcave_goblin }
		employed_advisor = { category = $category$ culture = rustroad_goblin }
		employed_advisor = { category = $category$ culture = crawler_goblin }
		employed_advisor = { category = $category$ culture = skinburner_goblin }
		employed_advisor = { category = $category$ culture = straggler_goblin }
		employed_advisor = { category = $category$ culture = goldtooth_goblin }
		employed_advisor = { category = $category$ culture = trolltamer_goblin }
		employed_advisor = { category = $category$ culture = deep_goblin }
	}
}


dwarovar_orc_culture = {
	OR = {
		culture = black_orc
		culture = moltenbrand_orc
		culture = blooded_orc
		culture = manhunter_orc
		culture = drakeclaw_orc
		culture = highhold_orc
		culture = cavelurker_orc
		culture = skull_orc
		culture = tarakar_orc
	}
}

dwarovar_orc_culture_primary = {
	OR = {
		primary_culture = black_orc
		primary_culture = moltenbrand_orc
		primary_culture = blooded_orc
		primary_culture = manhunter_orc
		primary_culture = drakeclaw_orc
		primary_culture = highhold_orc
		primary_culture = cavelurker_orc
		primary_culture = skull_orc
		primary_culture = tarakar_orc
	}
}

dwarovar_orc_culture_ruler = {
	custom_trigger_tooltip = {
		tooltip = dwarovar_orc_culture_ruler_tooltip
		OR = {
			ruler_culture = black_orc
			ruler_culture = moltenbrand_orc
			ruler_culture = blooded_orc
			ruler_culture = manhunter_orc
			ruler_culture = drakeclaw_orc
			ruler_culture = highhold_orc
			ruler_culture = cavelurker_orc
			ruler_culture = skull_orc
			ruler_culture = tarakar_orc
		}
	}
}

dwarovar_orc_culture_heir = {
	OR = {
		heir_culture = black_orc
		heir_culture = moltenbrand_orc
		heir_culture = blooded_orc
		heir_culture = manhunter_orc
		heir_culture = drakeclaw_orc
		heir_culture = highhold_orc
		heir_culture = cavelurker_orc
		heir_culture = skull_orc
		heir_culture = tarakar_orc
	}
}

dwarovar_orc_culture_consort = {
	OR = {
		consort_culture = black_orc
		consort_culture = moltenbrand_orc
		consort_culture = blooded_orc
		consort_culture = manhunter_orc
		consort_culture = drakeclaw_orc
		consort_culture = highhold_orc
		consort_culture = cavelurker_orc
		consort_culture = skull_orc
		consort_culture = tarakar_orc
	}
}

dwarovar_orc_culture_accepted = {
	OR = {
		accepted_culture = black_orc
		accepted_culture = moltenbrand_orc
		accepted_culture = blooded_orc
		accepted_culture = manhunter_orc
		accepted_culture = drakeclaw_orc
		accepted_culture = highhold_orc
		accepted_culture = cavelurker_orc
		accepted_culture = skull_orc
		accepted_culture = tarakar_orc
	}
}


owns_jorkad_dam = {
	custom_trigger_tooltip = {
		tooltip = owns_built_jorkad_dam_tt
		676 = { has_province_modifier = the_jorkad_dam owned_by = owner }
	}
}

##############
### Holds ###
##############

has_dwarven_hold_2 = {
	custom_trigger_tooltip = {
		tooltip = has_dwarven_hold_2_tt
		OR = {
			has_province_modifier = dig_2
			has_province_modifier = dig_3
			has_province_modifier = dig_4
			has_province_modifier = dig_5
			has_province_modifier = dig_6
			has_province_modifier = dig_7
			has_province_modifier = dig_8
			has_province_modifier = dig_9
			has_province_modifier = dig_10
			has_province_modifier = dig_11
		}
	}
}

has_dwarven_hold_3 = {
	custom_trigger_tooltip = {
		tooltip = has_dwarven_hold_3_tt
		OR = {
			has_province_modifier = dig_3
			has_province_modifier = dig_4
			has_province_modifier = dig_5
			has_province_modifier = dig_6
			has_province_modifier = dig_7
			has_province_modifier = dig_8
			has_province_modifier = dig_9
			has_province_modifier = dig_10
			has_province_modifier = dig_11
		}
	}
}

has_dwarven_hold_4 = {
	custom_trigger_tooltip = {
		tooltip = has_dwarven_hold_4_tt
		OR = {
			has_province_modifier = dig_4
			has_province_modifier = dig_5
			has_province_modifier = dig_6
			has_province_modifier = dig_7
			has_province_modifier = dig_8
			has_province_modifier = dig_9
			has_province_modifier = dig_10
			has_province_modifier = dig_11
		}
	}
}

has_dwarven_hold_5 = {
	custom_trigger_tooltip = {
		tooltip = has_dwarven_hold_5_tt
		OR = {
			has_province_modifier = dig_5
			has_province_modifier = dig_6
			has_province_modifier = dig_7
			has_province_modifier = dig_8
			has_province_modifier = dig_9
			has_province_modifier = dig_10
			has_province_modifier = dig_11
		}
	}
}

has_dwarven_hold_6 = {
	custom_trigger_tooltip = {
		tooltip = has_dwarven_hold_6_tt
		OR = {
			has_province_modifier = dig_6
			has_province_modifier = dig_7
			has_province_modifier = dig_8
			has_province_modifier = dig_9
			has_province_modifier = dig_10
			has_province_modifier = dig_11
		}
	}
}

has_dwarven_hold_7 = {
	custom_trigger_tooltip = {
		tooltip = has_dwarven_hold_7_tt
		OR = {
			has_province_modifier = dig_7
			has_province_modifier = dig_8
			has_province_modifier = dig_9
			has_province_modifier = dig_10
			has_province_modifier = dig_11
		}
	}
}

has_dwarven_hold_8 = {
	custom_trigger_tooltip = {
		tooltip = has_dwarven_hold_8_tt
		OR = {
			has_province_modifier = dig_8
			has_province_modifier = dig_9
			has_province_modifier = dig_10
			has_province_modifier = dig_11
		}
	}
}

has_dwarven_hold_9 = {
	custom_trigger_tooltip = {
		tooltip = has_dwarven_hold_9_tt
		OR = {
			has_province_modifier = dig_9
			has_province_modifier = dig_10
			has_province_modifier = dig_11
		}
	}
}

has_dwarven_hold_10 = {
	custom_trigger_tooltip = {
		tooltip = has_dwarven_hold_10_tt
		OR = {
			has_province_modifier = dig_10
			has_province_modifier = dig_11
		}
	}
}

has_dwarven_hold_11 = {
	custom_trigger_tooltip = {
		tooltip = has_dwarven_hold_11_tt
		has_province_modifier = dig_11
	}
}

can_upgrade_hold = {
	province_group = hold_province
	has_subterranean_race = yes
	is_capital = no
	is_core = ROOT
	custom_trigger_tooltip = {
		tooltip = diggy_no_building #This includes armies and such
		NOT = { has_construction = any }
	}
	NOT = { has_construction = army } #For clarity
	NOT = { has_construction = navy } #For clarity
	NOT = { owner = { dwarovar_orc_culture_primary = yes } }
	custom_trigger_tooltip = {
		tooltip = not_diggy_locked_tooltip
		NOT = { has_province_modifier = F23_flooded_depths }
		NOT = { has_province_modifier = incomplete_hold }
		NOT = { has_province_modifier = incomplete_hold_0 }
	}
	hold_condition = { Repaired = yes }
	custom_trigger_tooltip = {
		tooltip = enough_dev_to_dig_tooltip
		OR = {
			AND = {
				has_province_modifier = dig_1
				development = 40
			}
			AND = {
				has_province_modifier = dig_2
				development = 50
			}
			AND = {
				has_province_modifier = dig_3
				development = 60
			}
			AND = {
				has_province_modifier = dig_4
				development = 70
			}
			AND = {
				has_province_modifier = dig_5
				development = 80
			}
			AND = {
				has_province_modifier = dig_6
				development = 90
			}
			AND = {
				has_province_modifier = dig_7
				development = 100
			}
			AND = {
				has_province_modifier = dig_8
				development = 110
			}
			AND = {
				has_province_modifier = dig_9
				development = 120
			}
			AND = {
				has_province_modifier = dig_10
				OR = { province_id = 4119 province_id = 4311 }
				development = 130
			}
		}
	}
	if = {
		limit = { owner = { has_country_flag = I98_can_befuddle_flag } }
		custom_trigger_tooltip = {
			tooltip = I98_not_befuddling_2_tt
			NOT = { has_province_flag = I98_befuddling_hold_flag }
		}
	}
}

can_upgrade_hold_capital = {
	is_state_core = ROOT
	#is_capital = yes
	#OR = {
	#	has_terrain = dwarven_hold
	#	has_terrain = dwarven_hold_surface
	#}
	
	custom_trigger_tooltip = {
		tooltip = diggy_no_building #This includes armies and such
		NOT = { has_construction = any }
	}
	NOT = { has_construction = army } #For clarity
	NOT = { has_construction = navy } #For clarity
	NOT = { owner = { dwarovar_orc_culture_primary = yes } }
	
	hidden_trigger = {
		if = {
			limit = { OR = { province_id = 4119 province_id = 4311 AND = { province_id = 2931 OWNER = { has_country_flag = I98_may_come_down_flag } } } } #Big and Second capital
			NOT = { has_province_modifier = dig_11 }
		}
		else = {
			NOT = { has_province_modifier = dig_10 }
		}
	}
	hold_condition = { Repaired = yes }
	else_if = {
		limit = { has_province_modifier = dig_1 }
		development = 40
	}
	else_if = {
		limit = { has_province_modifier = dig_2 }
		development = 50
	}
	else_if = {
		limit = { has_province_modifier = dig_3 }
		development = 60
	}
	else_if = {
		limit = { has_province_modifier = dig_4 }
		development = 70
	}
	else_if = {
		limit = { has_province_modifier = dig_5 }
		development = 80
	}
	else_if = {
		limit = { has_province_modifier = dig_6 }
		development = 90
	}
	else_if = {
		limit = { has_province_modifier = dig_7 }
		development = 100
	}
	else_if = {
		limit = { has_province_modifier = dig_8 }
		development = 110
	}
	else_if = {
		limit = { has_province_modifier = dig_9 }
		development = 120
	}
	else_if = {
		limit = { has_province_modifier = dig_10 OR = { province_id = 4119 province_id = 4311 } }
		development = 130
	}
	#has_subterranean_race = yes	#This is checked in the decision
	if = {
		limit = { owner = { has_country_flag = I98_can_befuddle_flag } }
		custom_trigger_tooltip = {
			tooltip = I98_not_befuddling_2_tt
			NOT = { has_province_flag = I98_befuddling_hold_flag }
		}
	}
}

can_dig_hold_alert = {
	owned_by = ROOT
	owner = { # check tech level
		OR = {
			culture_group = dwarven
			AND = {
				OR = {
					dwarovar_goblin_culture_primary = yes
					primary_culture = darkscale_kobold
				}
				adm_tech = 5
			}
			AND = {
				NOT = { culture_group = dwarven }
				NOT = { primary_culture = darkscale_kobold }
				NOT = { dwarovar_goblin_culture_primary = yes }
				adm_tech = 7
			}
		}
		NOT = { num_of_rebel_armies = 1 }
		NOT = { dwarovar_orc_culture_primary = yes }
	}
	OR = {
		AND = {
			is_capital_of = ROOT
			NOT = { owner = { has_country_flag = building_diggy } } # upgrading infrastructure
		}
		owner = { has_country_flag = hold_operation } # centralized hold operations
	}
	NOT = {
		has_construction = any
		has_province_modifier = ruined_hold
		has_province_modifier = infested_hold
		has_province_modifier = incomplete_hold
		has_province_modifier = incomplete_hold_0
	}
	has_subterranean_race = yes
	hold_condition = { Repaired = yes }
	OR = {
		AND = {
			has_province_modifier = dig_1
			development = 40
		}
		AND = {
			has_province_modifier = dig_2
			development = 50
		}
		AND = {
			has_province_modifier = dig_3
			development = 60
		}
		AND = {
			has_province_modifier = dig_4
			development = 70
		}
		AND = {
			has_province_modifier = dig_5
			development = 80
		}
		AND = {
			has_province_modifier = dig_6
			development = 90
		}
		AND = {
			has_province_modifier = dig_7
			development = 100
		}
		AND = {
			has_province_modifier = dig_8
			development = 110
		}
		AND = {
			has_province_modifier = dig_9
			development = 120
		}
		AND = {
			has_province_modifier = dig_10
			OR = {
				province_id = 4119 #Amldihr
				province_id = 4311 #Gronstunad
					AND = {
						province_id = 2931 #Er-Natvir
						owner = { has_country_flag = I98_may_come_down_flag } #Allclan nonsense
					}
					AND = {
						province_id = 4093
						owner = { has_country_flag = H76_reached_the_bottom }
					}
			}
			development = 130
		}
	}
	NOT = {
		AND = {
			owner = {
				has_country_flag = I98_can_befuddle_flag
			}
			has_province_flag = I98_befuddling_hold_flag
		}
	}
}

has_advanced_hold_infrastructure = {
	OR = {
		has_province_modifier = hold_artisan
		has_province_modifier = hold_city
		has_province_modifier = hold_farm
		has_province_modifier = hold_military
		has_province_modifier = hold_foundry
		has_province_modifier = hold_artisan_2
		has_province_modifier = hold_city_2
		has_province_modifier = hold_farm_2
		has_province_modifier = hold_military_2
		has_province_modifier = hold_foundry_2
	}
}

has_improved_hold_infrastructure = {
	OR = {
		has_province_modifier = hold_artisan_2
		has_province_modifier = hold_city_2
		has_province_modifier = hold_farm_2
		has_province_modifier = hold_military_2
		has_province_modifier = hold_foundry_2
	}
}

hold_condition = {
	[[Repaired]
		custom_trigger_tooltip = {
			tooltip = hold_is_repaired_tt
			NOT = {
				has_province_modifier = infested_hold
				has_province_modifier = damaged_hold
				has_province_modifier = partially_ruined_hold
				has_province_modifier = ruined_hold
			}
		}
	]

	[[Damaged]
		OR = {
			has_province_modifier = infested_hold
			has_province_modifier = damaged_hold
			has_province_modifier = partially_ruined_hold
			has_province_modifier = ruined_hold
		}
	]
}



################################
### Expeditions and Dungeons ###
################################
can_spawn_expedition = {
	continent = serpentspine 
	NOT = { region = serpents_vale_region region = northern_pass_region } 
	NOT = { has_province_modifier = expedition_target }
	if = {
		limit = { has_dlc = "Leviathan" }
		custom_trigger_tooltip = {
			tooltip = can_spawn_expedition_tooltip
			has_dwarovar_dungeon = no
		}
	}
}

expedition_danger_level = {
	check_variable = { dangerLevel = $min$ }
	NOT = { check_variable = { dangerLevel = $max$.1 } }
}

has_dwarovkron_fragment = {
	OR = {
		has_country_modifier = dwarovkron_crown
		has_country_modifier = dwarovkron_amethyst
		has_country_modifier = dwarovkron_diamond
		has_country_modifier = dwarovkron_citrine
		has_country_modifier = dwarovkron_ruby
		has_country_modifier = dwarovkron_jade
		has_country_modifier = dwarovkron_sapphire
		has_country_modifier = dwarovkron_agate
		has_country_modifier = dwarovkron_full
	}
}

has_special_expedition = {
	OR = {
		province_id = 4033
		has_province_flag = khug_expedition_1_created 
		has_province_flag = khug_expedition_2_created 
		has_province_flag = krakazol_1st_exp 
		has_province_flag = krakazol_2nd_exp 
		has_province_flag = krakazol_3rd_exp
		has_province_flag = vazhatun_expedition_flag
		has_province_flag = mb_vampire_expedition_flag 
	}
}

has_dwarovar_dungeon = {
	custom_trigger_tooltip = {
		tooltip = has_dwarovar_dungeon_tooltip
		has_dlc = "Leviathan"
		OR = {
			has_great_project = { type = dd_frogarsalforn }
			has_great_project = { type = dd_stunveigryorth }
			has_great_project = { type = dd_wytlramvar }
			has_great_project = { type = dd_dimlherd }
			has_great_project = { type = dd_grumhardhum }
			has_great_project = { type = dd_leforn }
			has_great_project = { type = dd_rizvambrethar }
			has_great_project = { type = dd_ofralglarf }
			has_great_project = { type = dd_yidablaerun }
		}
	}
}

can_use_dungeons = {
	OR = {
		culture_group = dwarven
		culture_group = goblin
		culture_group = kobold
		dwarovar_orc_culture_primary = yes
		primary_culture = mossmouth_ogre
		primary_culture = cave_troll
		primary_culture = silent_harimari
	}
}
################################
### Dwarven Pantheon ###
################################

#don't use these in the church aspects file because it kills the error log despite working
has_any_dwarven_pantheon_major_deity = {
	custom_trigger_tooltip = {
		tooltip = has_any_dwarven_pantheon_major_deity_tooltip
		OR = {
			has_church_aspect = dagrin_adm_aspect
			has_church_aspect = dagrin_dip_aspect
			has_church_aspect = anvelind_dip_aspect
			has_church_aspect = anvelind_mil_aspect
			has_church_aspect = durvorazir_adm_aspect
			has_church_aspect = durvorazir_mil_aspect
			has_church_aspect = margurz_dip_aspect
			has_church_aspect = margurz_mil_aspect
			has_church_aspect = miradeth_dip_aspect
			has_church_aspect = miradeth_mil_aspect
			has_church_aspect = azmirethazin_adm_aspect
			has_church_aspect = azmirethazin_dip_aspect
			has_church_aspect = argezenna_adm_aspect
			has_church_aspect = argezenna_mil_aspect
			has_church_aspect = auirikus_adm_aspect
			has_church_aspect = auirikus_dip_aspect
			has_church_aspect = urisazirn_adm_aspect
			has_church_aspect = urisazirn_mil_aspect
		}
	}
}
has_two_dwarven_pantheon_minor_deities = {
	custom_trigger_tooltip = {
		tooltip = has_two_dwarven_pantheon_minor_deities_tooltip
		calc_true_if = {
			amount = 2

			has_church_aspect = dolurazan_adm_aspect
			has_church_aspect = dolurazan_mil_aspect
			has_church_aspect = derzobrazan_adm_aspect
			has_church_aspect = derzobrazan_dip_aspect
			has_church_aspect = bervinazan_adm_aspect
			has_church_aspect = bervinazan_mil_aspect
			has_church_aspect = karazlov_dip_aspect
			has_church_aspect = karazlov_mil_aspect
			has_church_aspect = grimthar_adm_aspect
			has_church_aspect = grimthar_dip_aspect
			has_church_aspect = verdrik_adm_aspect
			has_church_aspect = verdrik_mil_aspect
			has_church_aspect = thyrfen_adm_aspect
			has_church_aspect = thyrfen_mil_aspect
			has_church_aspect = werdun_adm_aspect
			has_church_aspect = werdun_dip_aspect
			has_church_aspect = lorgrim_dip_aspect
			has_church_aspect = lorgrim_mil_aspect
			has_church_aspect = lorgram_adm_aspect
			has_church_aspect = lorgram_dip_aspect
			has_church_aspect = grobilazk_dip_aspect
			has_church_aspect = grobilazk_mil_aspect
		}
	}
}


has_unlocked_all_dwarven_pantheon_deities = {
	custom_trigger_tooltip = {
		tooltip = has_unlocked_all_dwarven_pantheon_deities_tooltip
		has_country_flag = dwarven_pantheon_knows_dagrin
		has_country_flag = dwarven_pantheon_knows_anvelind
		has_country_flag = dwarven_pantheon_knows_durvorazir
		has_country_flag = dwarven_pantheon_knows_margurz
		has_country_flag = dwarven_pantheon_knows_miradeth
		has_country_flag = dwarven_pantheon_knows_azmirethazin
		has_country_flag = dwarven_pantheon_knows_argezenna
		has_country_flag = dwarven_pantheon_knows_auirikus
		has_country_flag = dwarven_pantheon_knows_urisazirn

		has_country_flag = dwarven_pantheon_knows_dolurazan
		has_country_flag = dwarven_pantheon_knows_derzobrazan
		has_country_flag = dwarven_pantheon_knows_bervinazan
		has_country_flag = dwarven_pantheon_knows_karazlov
		has_country_flag = dwarven_pantheon_knows_grimthar
		has_country_flag = dwarven_pantheon_knows_verdrik
		has_country_flag = dwarven_pantheon_knows_thyrfen
		has_country_flag = dwarven_pantheon_knows_werdun
		has_country_flag = dwarven_pantheon_knows_lorgrim
		has_country_flag = dwarven_pantheon_knows_lorgram
		has_country_flag = dwarven_pantheon_knows_grobilazk
	}
}

has_unlocked_all_dwarven_pantheon_major_deities = {
	has_country_flag = dwarven_pantheon_knows_dagrin
	has_country_flag = dwarven_pantheon_knows_anvelind
	has_country_flag = dwarven_pantheon_knows_durvorazir
	has_country_flag = dwarven_pantheon_knows_margurz
	has_country_flag = dwarven_pantheon_knows_miradeth
	has_country_flag = dwarven_pantheon_knows_azmirethazin
	has_country_flag = dwarven_pantheon_knows_argezenna
	has_country_flag = dwarven_pantheon_knows_auirikus
	has_country_flag = dwarven_pantheon_knows_urisazirn
}

has_unlocked_all_dwarven_pantheon_minor_deities = {
	has_country_flag = dwarven_pantheon_knows_dolurazan
	has_country_flag = dwarven_pantheon_knows_derzobrazan
	has_country_flag = dwarven_pantheon_knows_bervinazan
	has_country_flag = dwarven_pantheon_knows_karazlov
	has_country_flag = dwarven_pantheon_knows_grimthar
	has_country_flag = dwarven_pantheon_knows_verdrik
	has_country_flag = dwarven_pantheon_knows_thyrfen
	has_country_flag = dwarven_pantheon_knows_werdun
	has_country_flag = dwarven_pantheon_knows_lorgrim
	has_country_flag = dwarven_pantheon_knows_lorgram
	has_country_flag = dwarven_pantheon_knows_grobilazk
}

has_dwarven_pantheon_deity = {
	OR = {
		has_church_aspect = $deity$_adm_aspect
		has_church_aspect = $deity$_dip_aspect
		has_church_aspect = $deity$_mil_aspect
	}
}


dwarven_pantheon_can_passive_upgrade_auirikus = {
	province_group = hold_province
	has_subterranean_race = yes
	is_capital = no
	is_core = ROOT
	hold_condition = { Repaired = yes }
	if = {
		limit = { has_province_modifier = dig_1 }
		development = 40
	}
	else_if = {
		limit = { has_province_modifier = dig_2 }
		development = 50
	}
	else_if = {
		limit = { has_province_modifier = dig_3 }
		development = 60
	}
	else_if = {
		limit = { has_province_modifier = dig_4 }
		development = 70
	}
	else_if = {
		limit = { has_province_modifier = dig_5 }
		development = 80
	}
	else_if = {
		limit = { has_province_modifier = dig_6 }
		development = 90
	}
	else_if = {
		limit = { has_province_modifier = dig_7 }
		development = 100
	}
	else_if = {
		limit = { has_province_modifier = dig_8 }
		development = 110
	}
	else_if = {
		limit = { has_province_modifier = dig_9 }
		development = 120
	}
	else_if = {
		limit = { has_province_modifier = dig_10 OR = { province_id = 4119 province_id = 4311 } }
		development = 130
	}
}



##############
### Blorcs ###
##############

has_any_blorc_camp = {
	OR = {
		has_province_modifier = blorc_plunder_camp
		has_province_modifier = blorc_war_camp
	}
}


blorc_can_be_plundered = {
	province_group = hold_province
	is_city = yes
	is_capital = no
	is_core = ROOT
	if = {
		limit = { NOT = { owned_by = ROOT } }
		owned_by = ROOT
	}
	NOT = {
		has_province_modifier = blorc_plunder_camp
		has_province_modifier = infested_hold
	}
	OR = {
		base_tax = 2
		base_production = 2
		base_manpower = 2
		NOT = { has_province_modifier = ruined_hold }
		NOT = { has_province_modifier = blorc_war_camp }
	}
}

has_blorc_trophy_pile = {
	OR = {
		has_province_modifier = blorc_trophy1
		has_province_modifier = blorc_trophy2
		has_province_modifier = blorc_trophy3
		has_province_modifier = blorc_trophy4
		has_province_modifier = blorc_trophy5
		has_province_modifier = blorc_trophy6
		has_province_modifier = blorc_trophy7
		has_province_modifier = blorc_trophy8
		has_province_modifier = blorc_trophy9
		has_province_modifier = blorc_trophy10
		has_province_modifier = blorc_trophy11
		has_province_modifier = blorc_trophy12
		has_province_modifier = blorc_trophy13
		has_province_modifier = blorc_trophy14
		has_province_modifier = blorc_trophy15
	}
}

has_blorc_trophy_pile_5 = {
	custom_trigger_tooltip = {
		tooltip = has_blorc_trophy_pile_5_tooltip
		OR = {
			has_province_modifier = blorc_trophy5
			has_province_modifier = blorc_trophy6
			has_province_modifier = blorc_trophy7
			has_province_modifier = blorc_trophy8
			has_province_modifier = blorc_trophy9
			has_province_modifier = blorc_trophy10
			has_province_modifier = blorc_trophy11
			has_province_modifier = blorc_trophy12
			has_province_modifier = blorc_trophy13
			has_province_modifier = blorc_trophy14
			has_province_modifier = blorc_trophy15
		}
	}
}

has_blorc_trophy_pile_10 = {
	custom_trigger_tooltip = {
		tooltip = has_blorc_trophy_pile_10_tooltip
		OR = {
			has_province_modifier = blorc_trophy10
			has_province_modifier = blorc_trophy11
			has_province_modifier = blorc_trophy12
			has_province_modifier = blorc_trophy13
			has_province_modifier = blorc_trophy14
			has_province_modifier = blorc_trophy15
		}
	}
}

has_old_dookan_omen = {
	custom_trigger_tooltip = {
		tooltip = has_old_dookan_omen_tooltip
		OR = {
			has_country_modifier = dookan_omen_of_strength
			has_country_modifier = dookan_omen_of_peace
			has_country_modifier = dookan_omen_of_wisdom_adm
			has_country_modifier = dookan_omen_of_wisdom_dip
			has_country_modifier = dookan_omen_of_wisdom_mil
			has_country_modifier = dookan_omen_of_destiny
			has_country_modifier = dookan_no_omen
			has_country_modifier = dookan_omen_of_calamity
			has_country_modifier = dookans_mercy
		}		
	}
}


##############
### Rails ###
##############
# This trigger is used to determine when a country can see a decision to upgrade rail.
rail_potential_trigger = {
	[[adm_tech_req]
		adm_tech = $adm_tech_req$
	]
	OR = {
		ai = no
		capital_scope = { continent = serpentspine }
	}
	any_owned_province = { has_province_modifier = $rail_to_replace$ }
	NOT = { has_reform = roadwarrior_great_convoy }
}

# This trigger determines whether a province can have its rail upgraded. 
# Checks for construction have been commented out, as this is also used for highlighting where such provinces should be shown. 
rail_province_eligibility_trigger = {
	# NOT = { has_construction = any }
	# NOT = { has_colonist = yes }
	has_province_modifier = $rail_to_replace$
	is_core = ROOT
	is_city = yes
	owned_by = ROOT
	any_neighbor_province = {
		is_core = ROOT
		owned_by = ROOT
		OR = {
			[[repair]
				has_province_modifier = restored_rail
				has_province_modifier = advanced_rail
				has_province_modifier = rocket_rail
			]
			[[upgrade]
				has_province_modifier = advanced_rail
				has_province_modifier = rocket_rail
			]
			[[rocket]
				has_province_modifier = rocket_rail
			]
			AND = {
				province_group = hold_province
				NOT = { has_province_modifier = infested_hold }
				if = { limit = { ROOT = { has_country_flag = blorc_plunder_capital_set } }
					OR = {
						NOT = { has_province_modifier = ruined_hold }
						has_province_modifier = blorc_war_camp
					}
				}
				else = {
					NOT = { has_province_modifier = ruined_hold }
				}
			}
		}
	}
}

# This trigger checks whether any owned province can have its rail upgraded.
rail_can_construct = {
	any_owned_province = {
		rail_province_eligibility_trigger = { rail_to_replace = $current_rail$ $upgraded_rail$ = yes }
		NOT = { has_construction = any }
		NOT = { has_colonist = yes }
	}
}